%YAML 1.1
%TAG !u! tag:unity3d.com,2011:
--- !u!1045 &1
EditorBuildSettings:
  m_ObjectHideFlags: 0
  serializedVersion: 2
  m_Scenes:
  - enabled: 1
    path: Assets/Scenes/MainMenu.unity
    guid: 4d5d1c1cbc8049f4dabe23d61ca314f7
  - enabled: 1
    path: Assets/Scenes/Gallery.unity
    guid: dca9e25f877a30346924917d8b438f9f
  - enabled: 1
    path: Assets/Scenes/Level.unity
    guid: 27036fe8c9d53e24091e6ca04773cd92
